   1.0000e-04   9.8088e+00  -2.2066e-01   4.4092e+01  -9.9191e-01
   1.2626e-04   1.0027e+01  -5.9747e-03   4.5068e+01  -2.6854e-02
   1.5942e-04   9.3036e+00  -7.3361e-01   4.1809e+01  -3.2968e+00
   2.0128e-04   9.6283e+00  -4.1352e-01   4.3261e+01  -1.8580e+00
   2.5413e-04   9.9683e+00  -7.8634e-02   4.4781e+01  -3.5325e-01
   3.2087e-04   9.7724e+00  -2.8038e-01   4.3891e+01  -1.2593e+00
   4.0513e-04   1.0001e+01  -5.8257e-02   4.4907e+01  -2.6159e-01
   5.1152e-04   9.4989e+00  -5.6779e-01   4.2641e+01  -2.5488e+00
   6.4584e-04   9.8754e+00  -1.9957e-01   4.4317e+01  -8.9559e-01
   8.1544e-04   1.0189e+01   1.0500e-01   4.5710e+01   4.7104e-01
   1.0296e-03   1.0116e+01   2.1056e-02   4.5363e+01   9.4425e-02
   1.2999e-03   1.0056e+01  -5.0151e-02   4.5077e+01  -2.2480e-01
   1.6413e-03   9.6115e+00  -5.0824e-01   4.3062e+01  -2.2770e+00
   2.0723e-03   1.1063e+01   9.2804e-01   4.9536e+01   4.1555e+00
   2.6165e-03   1.0331e+01   1.7944e-01   4.6230e+01   8.0300e-01
   3.3036e-03   1.0780e+01   6.1016e-01   4.8207e+01   2.7285e+00
   4.1711e-03   9.9448e+00  -2.4677e-01   4.4435e+01  -1.1026e+00
   5.2665e-03   1.0327e+01   1.1164e-01   4.6101e+01   4.9839e-01
   6.6494e-03   9.8859e+00  -3.5664e-01   4.4086e+01  -1.5904e+00
   8.3956e-03   1.0186e+01  -8.7326e-02   4.5370e+01  -3.8898e-01
   1.0600e-02   9.8517e+00  -4.5540e-01   4.3825e+01  -2.0258e+00
   1.3384e-02   1.1490e+01   1.1445e+00   5.1038e+01   5.0837e+00
   1.6898e-02   1.1278e+01   8.8843e-01   5.0009e+01   3.9395e+00
   2.1336e-02   1.1033e+01   5.9422e-01   4.8828e+01   2.6299e+00
   2.6939e-02   1.0505e+01   1.1466e-02   4.6392e+01   5.0635e-02
   3.4013e-02   1.0438e+01  -1.1885e-01   4.5978e+01  -5.2354e-01
   4.2945e-02   1.1052e+01   4.2434e-01   4.8545e+01   1.8639e+00
   5.4222e-02   1.0573e+01  -1.3437e-01   4.6292e+01  -5.8829e-01
   6.8461e-02   1.1150e+01   3.5157e-01   4.8635e+01   1.5335e+00
   8.6439e-02   1.0639e+01  -2.6158e-01   4.6212e+01  -1.1361e+00
   1.0914e-01   1.1031e+01   1.3708e-02   4.7680e+01   5.9249e-02
   1.3780e-01   1.0365e+01  -7.8478e-01   4.4551e+01  -3.3731e+00
   1.7398e-01   1.0777e+01  -5.2349e-01   4.6023e+01  -2.2356e+00
   2.1967e-01   1.1778e+01   3.0648e-01   4.9927e+01   1.2992e+00
   2.7736e-01   1.1421e+01  -2.4523e-01   4.8004e+01  -1.0308e+00
   3.5019e-01   1.2342e+01   4.5393e-01   5.1371e+01   1.8893e+00
   4.4215e-01   1.2243e+01   1.0061e-01   5.0385e+01   4.1404e-01
   5.5826e-01   1.3562e+01   1.1292e+00   5.5092e+01   4.5871e+00
   7.0486e-01   1.1542e+01  -1.2249e+00   4.6184e+01  -4.9014e+00
   8.8995e-01   1.2724e+01  -4.2558e-01   5.0041e+01  -1.6738e+00
   1.1237e+00   1.3900e+01   3.1053e-01   5.3589e+01   1.1972e+00
   1.4187e+00   1.1789e+01  -2.3090e+00   4.4418e+01  -8.6997e+00
   1.7913e+00   1.3779e+01  -9.0635e-01   5.0566e+01  -3.3260e+00
   2.2617e+00   1.2981e+01  -2.3852e+00   4.6218e+01  -8.4920e+00
   2.8556e+00   1.4830e+01  -1.3271e+00   5.1003e+01  -4.5643e+00
   3.6055e+00   1.8486e+01   1.4093e+00   6.1118e+01   4.6593e+00
   4.5523e+00   1.5619e+01  -2.5308e+00   4.9374e+01  -8.0002e+00
   5.7477e+00   1.9439e+01   3.4772e-02   5.8407e+01   1.0448e-01
   7.2570e+00   2.2050e+01   1.1756e+00   6.2564e+01   3.3356e+00
   9.1627e+00   2.1909e+01  -6.9121e-01   5.8294e+01  -1.8391e+00
   1.1569e+01   2.3258e+01  -1.3715e+00   5.7599e+01  -3.3964e+00
   1.4607e+01   2.8104e+01   1.0860e+00   6.4271e+01   2.4835e+00
   1.8443e+01   2.9504e+01  -3.2759e-01   6.1794e+01  -6.8612e-01
   2.3286e+01   3.2829e+01  -3.1341e-01   6.2440e+01  -5.9610e-01
   2.9400e+01   3.5376e+01  -1.6600e+00   6.0572e+01  -2.8424e+00
   3.7121e+01   4.4606e+01   3.0105e+00   6.8169e+01   4.6007e+00
   4.6869e+01   4.8888e+01   1.9809e+00   6.6123e+01   2.6793e+00
   5.9177e+01   4.9814e+01  -3.2197e+00   5.9159e+01  -3.8237e+00
   7.4717e+01   5.7882e+01  -2.1154e+00   5.9932e+01  -2.1903e+00
   9.4337e+01   6.2832e+01  -4.9048e+00   5.6394e+01  -4.4022e+00
   1.1911e+02   7.5583e+01  -4.6787e-01   5.8580e+01  -3.6262e-01
   1.5039e+02   8.1836e+01  -2.6941e+00   5.4712e+01  -1.8012e+00
   1.8988e+02   9.2015e+01  -4.8603e-01   5.3206e+01  -2.8104e-01
   2.3974e+02   9.4923e+01  -4.1112e+00   4.7815e+01  -2.0709e+00
   3.0270e+02   1.0473e+02   1.6570e+00   4.6532e+01   7.3618e-01
   3.8219e+02   1.0817e+02   4.4477e+00   4.3143e+01   1.7739e+00
   4.8255e+02   9.8366e+01  -2.2036e+00   3.6009e+01  -8.0666e-01
   6.0927e+02   9.1696e+01  -2.2299e+00   3.1604e+01  -7.6855e-01
   7.6926e+02   8.8750e+01   4.0347e+00   2.9607e+01   1.3460e+00
   9.7127e+02   7.5058e+01   9.0032e-01   2.4956e+01   2.9934e-01
   1.2263e+03   6.0871e+01  -2.5228e+00   2.0808e+01  -8.6238e-01
   1.5484e+03   5.7048e+01   3.7874e+00   2.0737e+01   1.3767e+00
   1.9550e+03   4.5897e+01   1.6565e+00   1.8402e+01   6.6417e-01
   2.4683e+03   3.6099e+01  -4.2971e-01   1.6592e+01  -1.9751e-01
   3.1165e+03   2.7539e+01  -2.5859e+00   1.5068e+01  -1.4149e+00
   3.9349e+03   2.3825e+01  -1.0939e+00   1.6035e+01  -7.3625e-01
   4.9682e+03   1.8988e+01  -1.7601e+00   1.6102e+01  -1.4926e+00
   6.2729e+03   1.8411e+01   9.7641e-01   1.9948e+01   1.0579e+00
   7.9202e+03   1.4724e+01  -8.9317e-02   2.0484e+01  -1.2426e-01
   1.0000e+04   1.2293e+01  -4.5195e-01   2.1920e+01  -8.0587e-01